{
    "name": "Weather",
    "alias": "weather",
    "description": "",
    "keywords": [],
    "order": 0,
    "providers": [
        "Modules\\Weather\\Providers\\WeatherServiceProvider"
    ],
    "aliases": {},
    "files": [],
    "requires": []
}
